module gitlab.com/TheIncredibleMulk/elsa

go 1.18

require (
	github.com/charmbracelet/bubbles v0.10.3
	github.com/charmbracelet/bubbletea v0.20.0
	github.com/charmbracelet/lipgloss v0.5.0
	github.com/shiena/ansicolor v0.0.0-20200904210342-c7312218db18
	github.com/sirupsen/logrus v1.8.1
)

require (
	github.com/atotto/clipboard v0.1.4 // indirect
	github.com/containerd/console v1.0.3 // indirect
	github.com/lucasb-eyer/go-colorful v1.2.0 // indirect
	github.com/mattn/go-isatty v0.0.14 // indirect
	github.com/mattn/go-runewidth v0.0.13 // indirect
	github.com/muesli/ansi v0.0.0-20211018074035-2e021307bc4b // indirect
	github.com/muesli/reflow v0.3.0 // indirect
	github.com/muesli/termenv v0.11.1-0.20220212125758-44cd13922739 // indirect
	github.com/rivo/uniseg v0.2.0 // indirect
	github.com/sahilm/fuzzy v0.1.0 // indirect
	golang.org/x/sys v0.0.0-20210630005230-0f9fa26af87c // indirect
	golang.org/x/term v0.0.0-20210422114643-f5beecf764ed // indirect
)
